[{
  "label": "Sales",
  "color": "#009688",
  "data": [
    ["Jan", 27],
    ["Feb", 82],
    ["Mar", 56],
    ["Apr", 14],
    ["May", 28],
    ["Jun", 77],
    ["Jul", 23],
    ["Aug", 49],
    ["Sep", 81],
    ["Oct", 20]
  ]
}]
